{
	"id": "642a8411-6407-4368-b0ab-012152c39ea6",
	"name": "7.3",
	"values": [
		{
			"key": "BPAPI_BASEURL",
			"value": "https://bpapi.local/api/v7",
			"enabled": true
		},
		{
			"key": "BPAPI_CLIENTID",
			"value": "CLIENT_ID",
			"enabled": true
		},
		{
			"key": "BPAPI_CLIENTSECRET",
			"value": "CLIENT_SECRET",
			"enabled": true
		},
		{
			"key": "BPAPI_OAUTH2URL",
			"value": "https://authentication.local/connect/token",
			"enabled": true
		}
	],
	"_postman_variable_scope": "environment",
	"_postman_exported_at": "2024-01-15T00:30:39.565Z",
	"_postman_exported_using": "Postman/10.20.10"
}